{
  "project_info": {
    "project_number": "835404529463",
    "firebase_url": "https://luanvan-290416.firebaseio.com",
    "project_id": "luanvan-290416",
    "storage_bucket": "luanvan-290416.appspot.com"
  },
  "client": [
    {
      "client_info": {
        "mobilesdk_app_id": "1:835404529463:android:1f3d2609709941b5a0a4b2",
        "android_client_info": {
          "package_name": "com.luanvan"
        }
      },
      "oauth_client": [
        {
          "client_id": "835404529463-hrqrncjdqnmqfiv660vcm0uu7hhrkop6.apps.googleusercontent.com",
          "client_type": 1,
          "android_info": {
            "package_name": "com.luanvan",
            "certificate_hash": "5e8f16062ea3cd2c4a0d547876baa6f38cabf625"
          }
        },
        {
          "client_id": "835404529463-vnv54p7af5rd7162m5vtj29mko0f1qc5.apps.googleusercontent.com",
          "client_type": 3
        }
      ],
      "api_key": [
        {
          "current_key": "AIzaSyApdgHu4p3T5BB8YYFvwNY_eK-SObpru_Q"
        }
      ],
      "services": {
        "appinvite_service": {
          "other_platform_oauth_client": [
            {
              "client_id": "835404529463-vnv54p7af5rd7162m5vtj29mko0f1qc5.apps.googleusercontent.com",
              "client_type": 3
            }
          ]
        }
      }
    }
  ],
  "configuration_version": "1"
}